{
    "products": [
        {
            "id": "20750",
            "sku": "9541_1",
            "name": "Cabecera matrimonial Metropolitan - Dorado",
            "image": "https://www.gaiadesign.com.mx/media/catalog/product/cache/0/image/322x284/9df78eab33525d08d6e5fb8d27136e95/c/a/cabecera_matrimonial_metropolitan_dorado_still1_v1.jpg",
            "look_image": "https://www.gaiadesign.com.mx/media/catalog/product/cache/0/image/322x284/9df78eab33525d08d6e5fb8d27136e95/c/a/cabecera_matrimonial_metropolitan_dorado_still2_v1.jpg",
            "price": 4199,
            "has_discount": null,
            "is_available": true,
            "extend_zone": null,
            "is_express_delivery": null,
            "is_new": null,
            "msrp": 4199,
            "tiempo_entrega_max": 5,
            "tiempo_entrega_max_sin_stock": 40,
            "url": "https://www.gaiadesign.com.mx/cabecera-matrimonial-metropolitan-dorado.html"
        },
        {
            "id": "16663",
            "sku": "7977_1",
            "name": "Tapete circular Nasa - Azul",
            "image": "https://www.gaiadesign.com.mx/media/catalog/product/cache/0/image/322x284/9df78eab33525d08d6e5fb8d27136e95/t/a/tapete_circular_nasa_azul_still1_v1.jpg",
            "look_image": "https://www.gaiadesign.com.mx/media/catalog/product/cache/0/image/322x284/9df78eab33525d08d6e5fb8d27136e95/t/a/tapete_circular_nasa_azul_still2_v1.jpg",
            "price": 5949,
            "has_discount": true,
            "is_available": true,
            "extend_zone": true,
            "is_express_delivery": true,
            "is_new": null,
            "msrp": 8499,
            "tiempo_entrega_max": 5,
            "tiempo_entrega_max_sin_stock": 20,
            "url": "https://www.gaiadesign.com.mx/tapete-circular-nasa-azul.html"
        },
        {
            "id": "15370",
            "sku": "6343_3",
            "name": "Silla Rolet encino - Vino",
            "image": "https://www.gaiadesign.com.mx/media/catalog/product/cache/0/image/322x284/9df78eab33525d08d6e5fb8d27136e95/s/i/silla_rolet_encino_vino_still1_v1.jpg",
            "look_image": "https://www.gaiadesign.com.mx/media/catalog/product/cache/0/image/322x284/9df78eab33525d08d6e5fb8d27136e95/s/i/sillas_rolet_encino_miniambiente1_v1_ho.jpg",
            "price": 2499,
            "has_discount": null,
            "is_available": true,
            "extend_zone": true,
            "is_express_delivery": true,
            "is_new": null,
            "msrp": 2499,
            "tiempo_entrega_max": 5,
            "tiempo_entrega_max_sin_stock": 40,
            "url": "https://www.gaiadesign.com.mx/silla-rolet-encino-vino.html"
        },
        {
            "id": "20644",
            "sku": "9503_1",
            "name": "Buró Metropolitan - Negro",
            "image": "https://www.gaiadesign.com.mx/media/catalog/product/cache/0/image/322x284/9df78eab33525d08d6e5fb8d27136e95/b/u/buro_metropolitan_negro_still1_v1.jpg",
            "look_image": "https://www.gaiadesign.com.mx/media/catalog/product/cache/0/image/322x284/9df78eab33525d08d6e5fb8d27136e95/b/u/buro_metropolitan_negro_still2_v1.jpg",
            "price": 4299,
            "has_discount": null,
            "is_available": true,
            "extend_zone": null,
            "is_express_delivery": true,
            "is_new": null,
            "msrp": 4299,
            "tiempo_entrega_max": 5,
            "tiempo_entrega_max_sin_stock": 60,
            "url": "https://www.gaiadesign.com.mx/buro-metropolitan-negro.html"
        },
        {
            "id": "4530",
            "sku": "11_2",
            "name": "Silla replica Eames - Negro",
            "image": "https://www.gaiadesign.com.mx/media/catalog/product/cache/0/image/322x284/9df78eab33525d08d6e5fb8d27136e95/s/i/silla_replica1eames_negro_still1_v4.jpg",
            "look_image": "https://www.gaiadesign.com.mx/media/catalog/product/cache/0/image/322x284/9df78eab33525d08d6e5fb8d27136e95/s/i/sillas_replicas_eames_miniambiente1_v1_ho.jpg",
            "price": 599,
            "has_discount": true,
            "is_available": true,
            "extend_zone": true,
            "is_express_delivery": true,
            "is_new": null,
            "msrp": 829,
            "tiempo_entrega_max": 5,
            "tiempo_entrega_max_sin_stock": 60,
            "url": "https://www.gaiadesign.com.mx/silla-replica-eames-negro.html"
        },
        {
            "id": "20665",
            "sku": "9518_1",
            "name": "Escritorio Díaz 120cm - Aqua",
            "image": "https://www.gaiadesign.com.mx/media/catalog/product/cache/0/image/322x284/9df78eab33525d08d6e5fb8d27136e95/e/s/escritorio_diaz_120cm_verde_still1_v1.jpg",
            "look_image": "https://www.gaiadesign.com.mx/media/catalog/product/cache/0/image/322x284/9df78eab33525d08d6e5fb8d27136e95/e/s/escritorio_diaz_120cm_verde_still2_v1.jpg",
            "price": 6199,
            "has_discount": null,
            "is_available": true,
            "extend_zone": null,
            "is_express_delivery": true,
            "is_new": null,
            "msrp": 6199,
            "tiempo_entrega_max": 5,
            "tiempo_entrega_max_sin_stock": 60,
            "url": "https://www.gaiadesign.com.mx/escritorio-diaz-120cm-verde.html"
        },
        {
            "id": "20836",
            "sku": "9581_1",
            "name": "Silla Alfaro - Azul",
            "image": "https://www.gaiadesign.com.mx/media/catalog/product/cache/0/image/322x284/9df78eab33525d08d6e5fb8d27136e95/s/i/silla_alfaro_azul_still1_v1.jpg",
            "look_image": "https://www.gaiadesign.com.mx/media/catalog/product/cache/0/image/322x284/9df78eab33525d08d6e5fb8d27136e95/s/i/silla_alfaro_azul_still2_v1.jpg",
            "price": 2999,
            "has_discount": null,
            "is_available": true,
            "extend_zone": null,
            "is_express_delivery": null,
            "is_new": null,
            "msrp": 2999,
            "tiempo_entrega_max": 5,
            "tiempo_entrega_max_sin_stock": 40,
            "url": "https://www.gaiadesign.com.mx/silla-alfaro-azul.html"
        },
        {
            "id": "20901",
            "sku": "9611_1",
            "name": "Espejo de pared chico Lonet - Dorado",
            "image": "https://www.gaiadesign.com.mx/media/catalog/product/cache/0/image/322x284/9df78eab33525d08d6e5fb8d27136e95/e/s/espejo_de_pared_chico_lonet_dorado_still1_v1.jpg",
            "look_image": "https://www.gaiadesign.com.mx/media/catalog/product/cache/0/image/322x284/9df78eab33525d08d6e5fb8d27136e95/e/s/espejo_de_pared_chico_lonet_dorado_still2_v1.jpg",
            "price": 799,
            "has_discount": null,
            "is_available": true,
            "extend_zone": true,
            "is_express_delivery": true,
            "is_new": null,
            "msrp": 799,
            "tiempo_entrega_max": 5,
            "tiempo_entrega_max_sin_stock": 40,
            "url": "https://www.gaiadesign.com.mx/espejo-de-pared-chico-lonet-dorado.html"
        },
        {
            "id": "17218",
            "sku": "8203_2",
            "name": "Lámpara de mesa Boaje - Negro",
            "image": "https://www.gaiadesign.com.mx/media/catalog/product/cache/0/image/322x284/9df78eab33525d08d6e5fb8d27136e95/l/a/lampara_de_mesa_boaje_negro_still1_v3.jpg",
            "look_image": "https://www.gaiadesign.com.mx/media/catalog/product/cache/0/image/322x284/9df78eab33525d08d6e5fb8d27136e95/l/a/lampara_de_mesa_boaje_negro_still2_v3.jpg",
            "price": 2199,
            "has_discount": true,
            "is_available": true,
            "extend_zone": true,
            "is_express_delivery": true,
            "is_new": null,
            "msrp": 3199,
            "tiempo_entrega_max": 5,
            "tiempo_entrega_max_sin_stock": 40,
            "url": "https://www.gaiadesign.com.mx/lampara-de-mesa-boaje-negro.html"
        },
        {
            "id": "20646",
            "sku": "9504_1",
            "name": "Credenza Metropolitan - Negro",
            "image": "https://www.gaiadesign.com.mx/media/catalog/product/cache/0/image/322x284/9df78eab33525d08d6e5fb8d27136e95/c/r/credenza_metropolitan_negro_still1_v1.jpg",
            "look_image": "https://www.gaiadesign.com.mx/media/catalog/product/cache/0/image/322x284/9df78eab33525d08d6e5fb8d27136e95/c/r/credenza_metropolitan_negro_still2_v1.jpg",
            "price": 9299,
            "has_discount": null,
            "is_available": true,
            "extend_zone": null,
            "is_express_delivery": true,
            "is_new": null,
            "msrp": 9299,
            "tiempo_entrega_max": 5,
            "tiempo_entrega_max_sin_stock": 60,
            "url": "https://www.gaiadesign.com.mx/credenza-metropolitan-negro.html"
        },
        {
            "id": "20796",
            "sku": "9569_1",
            "name": "Bota navideña Bondad - Vino",
            "image": "https://www.gaiadesign.com.mx/media/catalog/product/cache/0/image/322x284/9df78eab33525d08d6e5fb8d27136e95/b/o/bota_navidena_bondad_vino_still1_v1.jpg",
            "look_image": "https://www.gaiadesign.com.mx/media/catalog/product/cache/0/image/322x284/9df78eab33525d08d6e5fb8d27136e95/b/o/bota_navidena_bondad_vino_still2_v1.jpg",
            "price": 399,
            "has_discount": null,
            "is_available": true,
            "extend_zone": true,
            "is_express_delivery": true,
            "is_new": null,
            "msrp": 399,
            "tiempo_entrega_max": 5,
            "tiempo_entrega_max_sin_stock": 40,
            "url": "https://www.gaiadesign.com.mx/bota-navide-a-bondad-vino.html"
        },
        {
            "id": "20841",
            "sku": "9582_1",
            "name": "Banco alto Alfaro - Azul",
            "image": "https://www.gaiadesign.com.mx/media/catalog/product/cache/0/image/322x284/9df78eab33525d08d6e5fb8d27136e95/b/a/banco_alto_alfaro_azul_still1_v1.jpg",
            "look_image": "https://www.gaiadesign.com.mx/media/catalog/product/cache/0/image/322x284/9df78eab33525d08d6e5fb8d27136e95/b/a/banco_alto_alfaro_azul_still2_v1.jpg",
            "price": 3299,
            "has_discount": null,
            "is_available": true,
            "extend_zone": null,
            "is_express_delivery": true,
            "is_new": null,
            "msrp": 3299,
            "tiempo_entrega_max": 5,
            "tiempo_entrega_max_sin_stock": 40,
            "url": "https://www.gaiadesign.com.mx/banco-alto-alfaro-azul.html"
        },
        {
            "id": "20848",
            "sku": "9576_1",
            "name": "Juego 6 copas para licor Timeless 60 ml - Transparente",
            "image": "https://www.gaiadesign.com.mx/media/catalog/product/cache/0/image/322x284/9df78eab33525d08d6e5fb8d27136e95/j/u/juego_6_copas_para_licor_timeless_60ml_transparente_still1_v1.jpg",
            "look_image": "https://www.gaiadesign.com.mx/media/catalog/product/cache/0/image/322x284/9df78eab33525d08d6e5fb8d27136e95/j/u/juego_6_copas_para_licor_timeless_60ml_transparente_still2_v1.jpg",
            "price": 599,
            "has_discount": null,
            "is_available": true,
            "extend_zone": true,
            "is_express_delivery": true,
            "is_new": null,
            "msrp": 599,
            "tiempo_entrega_max": 5,
            "tiempo_entrega_max_sin_stock": 40,
            "url": "https://www.gaiadesign.com.mx/juego-6-copas-para-licor-timeless-60-ml-transparente.html"
        },
        {
            "id": "21073",
            "sku": "9691_1",
            "name": "Juego de 3 esferas grandes Natividad - Multicolor",
            "image": "https://www.gaiadesign.com.mx/media/catalog/product/cache/0/image/322x284/9df78eab33525d08d6e5fb8d27136e95/j/u/juego_de_3_esferas_grandes_natividad_multicolor_still1_v1.jpg",
            "look_image": "https://www.gaiadesign.com.mx/media/catalog/product/cache/0/image/322x284/9df78eab33525d08d6e5fb8d27136e95/j/u/juego_de_3_esferas_grandes_natividad_multicolor_still2_v1.jpg",
            "price": 549,
            "has_discount": null,
            "is_available": true,
            "extend_zone": true,
            "is_express_delivery": true,
            "is_new": null,
            "msrp": 549,
            "tiempo_entrega_max": 5,
            "tiempo_entrega_max_sin_stock": 40,
            "url": "https://www.gaiadesign.com.mx/juego-de-3-esferas-grandes-natividad-multicolor.html"
        },
        {
            "id": "19763",
            "sku": "6721_2",
            "name": "Librero Taxco - Negro",
            "image": "https://www.gaiadesign.com.mx/media/catalog/product/cache/0/image/322x284/9df78eab33525d08d6e5fb8d27136e95/l/i/librero_taxco_negro_still1_v2.jpg",
            "look_image": "https://www.gaiadesign.com.mx/media/catalog/product/cache/0/image/322x284/9df78eab33525d08d6e5fb8d27136e95/l/i/librero_taxco_negro_still2_v2.jpg",
            "price": 10999,
            "has_discount": null,
            "is_available": true,
            "extend_zone": null,
            "is_express_delivery": null,
            "is_new": null,
            "msrp": 10999,
            "tiempo_entrega_max": 5,
            "tiempo_entrega_max_sin_stock": 40,
            "url": "https://www.gaiadesign.com.mx/librero-taxco-negro.html"
        },
        {
            "id": "18957",
            "sku": "8977_2",
            "name": "Mezclador de bebidas Andur - Dorado",
            "image": "https://www.gaiadesign.com.mx/media/catalog/product/cache/0/image/322x284/9df78eab33525d08d6e5fb8d27136e95/m/e/mezclador_de_bebidas_andur_dorado_still1_v1.jpg",
            "look_image": "https://www.gaiadesign.com.mx/media/catalog/product/cache/0/image/322x284/9df78eab33525d08d6e5fb8d27136e95/m/e/mezclador_de_bebidas_andur_dorado_still2_v1.jpg",
            "price": 769,
            "has_discount": true,
            "is_available": true,
            "extend_zone": true,
            "is_express_delivery": true,
            "is_new": null,
            "msrp": 999,
            "tiempo_entrega_max": 5,
            "tiempo_entrega_max_sin_stock": 60,
            "url": "https://www.gaiadesign.com.mx/mezclador-de-bebidas-andur-dorado.html"
        },
        {
            "id": "14071",
            "sku": "6780_4",
            "name": "Escritorio Horacio - Blanco",
            "image": "https://www.gaiadesign.com.mx/media/catalog/product/cache/0/image/322x284/9df78eab33525d08d6e5fb8d27136e95/e/s/escritorio_horacio_blanco_still1_v3.jpg",
            "look_image": "https://www.gaiadesign.com.mx/media/catalog/product/cache/0/image/322x284/9df78eab33525d08d6e5fb8d27136e95/e/s/escritorio_horacio_miniambiente1_v1_ho.jpg",
            "price": 2999,
            "has_discount": true,
            "is_available": true,
            "extend_zone": null,
            "is_express_delivery": null,
            "is_new": null,
            "msrp": 4499,
            "tiempo_entrega_max": 5,
            "tiempo_entrega_max_sin_stock": 20,
            "url": "https://www.gaiadesign.com.mx/escritorio-horacio-blanco.html"
        },
        {
            "id": "20741",
            "sku": "9540_1",
            "name": "Vela aromática Celebrate naranja canela | 40h",
            "image": "https://www.gaiadesign.com.mx/media/catalog/product/cache/0/image/322x284/9df78eab33525d08d6e5fb8d27136e95/v/e/vela_aromatica_celebrate_naranja_canela_40h_still1_v1.jpg",
            "look_image": "https://www.gaiadesign.com.mx/media/catalog/product/cache/0/image/322x284/9df78eab33525d08d6e5fb8d27136e95/v/e/vela_aromatica_celebrate_naranja_canela_40h_still2_v1.jpg",
            "price": 249,
            "has_discount": null,
            "is_available": true,
            "extend_zone": true,
            "is_express_delivery": true,
            "is_new": null,
            "msrp": 249,
            "tiempo_entrega_max": 5,
            "tiempo_entrega_max_sin_stock": 40,
            "url": "https://www.gaiadesign.com.mx/vela-aromatica-celebrate-naranja-canela-40h.html"
        },
        {
            "id": "20896",
            "sku": "9606_2",
            "name": "Set de 4 servilletas Linara - Gris oxford",
            "image": "https://www.gaiadesign.com.mx/media/catalog/product/cache/0/image/322x284/9df78eab33525d08d6e5fb8d27136e95/s/e/set_de_4_servilletas_linara_gris_oxford_still1_v1.jpg",
            "look_image": "https://www.gaiadesign.com.mx/media/catalog/product/cache/0/image/322x284/9df78eab33525d08d6e5fb8d27136e95/s/e/set_de_4_servilletas_linara_gris_oxford_still2_v1.jpg",
            "price": 349,
            "has_discount": null,
            "is_available": true,
            "extend_zone": true,
            "is_express_delivery": true,
            "is_new": null,
            "msrp": 349,
            "tiempo_entrega_max": 5,
            "tiempo_entrega_max_sin_stock": 40,
            "url": "https://www.gaiadesign.com.mx/set-de-4-servilletas-linara-gris-oxford.html"
        },
        {
            "id": "16794",
            "sku": "8019_1",
            "name": "Sala esquinera izquierda Landero - Café",
            "image": "https://www.gaiadesign.com.mx/media/catalog/product/cache/0/image/322x284/9df78eab33525d08d6e5fb8d27136e95/s/a/sala_esquinera_izquierda_landero_cafe_still1_v4.jpg",
            "look_image": "https://www.gaiadesign.com.mx/media/catalog/product/cache/0/image/322x284/9df78eab33525d08d6e5fb8d27136e95/s/a/salaesquineraizquierdalandero_miniambiente1_v1_ho.jpg",
            "price": 21999,
            "has_discount": true,
            "is_available": true,
            "extend_zone": null,
            "is_express_delivery": true,
            "is_new": true,
            "msrp": 26499,
            "tiempo_entrega_max": 5,
            "tiempo_entrega_max_sin_stock": 40,
            "url": "https://www.gaiadesign.com.mx/sala-esquinera-izquierda-landero-cafe-n.html"
        },
        {
            "id": "18690",
            "sku": "8844_1",
            "name": "Cojín 50x50 Mictla - Verde",
            "image": "https://www.gaiadesign.com.mx/media/catalog/product/cache/0/image/322x284/9df78eab33525d08d6e5fb8d27136e95/c/o/cojin_50x50_ictla_verde_still1_v1.jpg",
            "look_image": "https://www.gaiadesign.com.mx/media/catalog/product/cache/0/image/322x284/9df78eab33525d08d6e5fb8d27136e95/c/o/cojin_50x50_ictla_verde_still2_v1.jpg",
            "price": 799,
            "has_discount": null,
            "is_available": true,
            "extend_zone": true,
            "is_express_delivery": true,
            "is_new": null,
            "msrp": 799,
            "tiempo_entrega_max": 5,
            "tiempo_entrega_max_sin_stock": 40,
            "url": "https://www.gaiadesign.com.mx/cojin-45x45-mictla-verde.html"
        },
        {
            "id": "17873",
            "sku": "8490_3",
            "name": "Banco alto Rolet - Rosa",
            "image": "https://www.gaiadesign.com.mx/media/catalog/product/cache/0/image/322x284/9df78eab33525d08d6e5fb8d27136e95/b/a/bancoaltorolet_rosa_still1_v1.jpg",
            "look_image": "https://www.gaiadesign.com.mx/media/catalog/product/cache/0/image/322x284/9df78eab33525d08d6e5fb8d27136e95/b/a/bancoaltorolet_rosa_still2_v1.jpg",
            "price": 2999,
            "has_discount": null,
            "is_available": true,
            "extend_zone": true,
            "is_express_delivery": true,
            "is_new": null,
            "msrp": 2999,
            "tiempo_entrega_max": 5,
            "tiempo_entrega_max_sin_stock": 40,
            "url": "https://www.gaiadesign.com.mx/banco-alto-rolet-rosa.html"
        },
        {
            "id": "20822",
            "sku": "9577_1",
            "name": "Copa para vino tinto Timeless 330ml - Transparente",
            "image": "https://www.gaiadesign.com.mx/media/catalog/product/cache/0/image/322x284/9df78eab33525d08d6e5fb8d27136e95/c/o/copa_para_vino_tinto_timeless_330ml_transparente_still1_v1.jpg",
            "look_image": "https://www.gaiadesign.com.mx/media/catalog/product/cache/0/image/322x284/9df78eab33525d08d6e5fb8d27136e95/c/o/copa_para_vino_tinto_timeless_330ml_transparente_still2_v1.jpg",
            "price": 149,
            "has_discount": null,
            "is_available": true,
            "extend_zone": true,
            "is_express_delivery": true,
            "is_new": null,
            "msrp": 149,
            "tiempo_entrega_max": 5,
            "tiempo_entrega_max_sin_stock": 40,
            "url": "https://www.gaiadesign.com.mx/copa-para-vino-tinto-timeless-330ml-transparente.html"
        },
        {
            "id": "17402",
            "sku": "8274_1",
            "name": "Lámpara de techo grande Tihual - Dorado",
            "image": "https://www.gaiadesign.com.mx/media/catalog/product/cache/0/image/322x284/9df78eab33525d08d6e5fb8d27136e95/l/a/lampara_de_techo_grande_tihual_dorado_still1_v2.jpg",
            "look_image": "https://www.gaiadesign.com.mx/media/catalog/product/cache/0/image/322x284/9df78eab33525d08d6e5fb8d27136e95/l/a/lampara_de_techo_grande_tihual_dorado_still2_v2.jpg",
            "price": 1699,
            "has_discount": null,
            "is_available": true,
            "extend_zone": null,
            "is_express_delivery": true,
            "is_new": null,
            "msrp": 1699,
            "tiempo_entrega_max": 5,
            "tiempo_entrega_max_sin_stock": 40,
            "url": "https://www.gaiadesign.com.mx/lampara-de-techo-grande-tihual-dorado.html"
        }
    ],
    "filters": {
        "is_express_delivery": true,
        "extend_zone": true,
        "is_available": true,
        "is_new": false,
        "has_discount": true,
        "colors": [
            {
                "color": "gray",
                "items": 611
            },
            {
                "color": "black",
                "items": 527
            },
            {
                "color": "white",
                "items": 491
            },
            {
                "color": "blue",
                "items": 418
            },
            {
                "color": "brown",
                "items": 335
            },
            {
                "color": "green",
                "items": 198
            },
            {
                "color": "wheat",
                "items": 133
            },
            {
                "color": "yellow",
                "items": 124
            },
            {
                "color": "pink",
                "items": 122
            },
            {
                "color": "red",
                "items": 78
            }
        ],
        "dimension_alto": {
            "min": 1,
            "max": 290
        },
        "dimension_ancho": {
            "min": 0,
            "max": 300
        },
        "dimension_largo": {
            "min": 0,
            "max": 380
        },
        "price": {
            "min": 19,
            "max": 31299
        }
    },
    "pagination": {
        "total": 3206,
        "count": 24,
        "per_page": 24,
        "current_page": 1,
        "total_pages": 134,
        "links": {
            "prev": null,
            "next": "http://www.gaiadesign.com.mx/catalogsearch.php?p=2&category_ids=157&is_available=true"
        }
    }
}